COVID-19 trend
…
owid %>% 
  filter(location=="Aruba")%>% 
  dplyr::mutate(new_cases = replace_na(new_cases, 0))

## # A tibble: 244 × 50
##    iso_code continent     location date       total_cases new_cases
##    <chr>    <chr>         <chr>    <date>           <dbl>     <dbl>
##  1 ABW      North America Aruba    2020-03-13           2         2
##  2 ABW      North America Aruba    2020-03-19          NA         0
##  3 ABW      North America Aruba    2020-03-20           4         2
##  4 ABW      North America Aruba    2020-03-21          NA         0
##  5 ABW      North America Aruba    2020-03-22          NA         0
##  6 ABW      North America Aruba    2020-03-23          NA         0
##  7 ABW      North America Aruba    2020-03-24          12         8
##  8 ABW      North America Aruba    2020-03-25          17         5
##  9 ABW      North America Aruba    2020-03-26          19         2
## 10 ABW      North America Aruba    2020-03-27          28         9
## # ℹ 234 more rows
## # ℹ 44 more variables: new_cases_smoothed <dbl>, total_deaths <dbl>,
## #   new_deaths <dbl>, new_deaths_smoothed <dbl>, total_cases_per_million <dbl>,
## #   new_cases_per_million <dbl>, new_cases_smoothed_per_million <dbl>,
## #   total_deaths_per_million <dbl>, new_deaths_per_million <dbl>,
## #   new_deaths_smoothed_per_million <dbl>, reproduction_rate <dbl>,
## #   icu_patients <dbl>, icu_patients_per_million <dbl>, hosp_patients <dbl>, …
Calucalting a rolling average , rolling mean

From this website

https://www.storybench.org/how-to-calculate-a-rolling-average-in-r/

Aruba=owid %>% 
  filter(location=="Aruba") %>% 
  dplyr::mutate(new_cases = replace_na(new_cases, 0)) %>% 
    dplyr::mutate(new_cases_03da = zoo::rollmean(new_cases, k = 3, fill = NA),
                  new_cases_07da = zoo::rollmean(new_cases, k = 7, fill = NA),
                  new_cases_14da = zoo::rollmean(new_cases, k = 14, fill = NA))
Aruba

## # A tibble: 244 × 53
##    iso_code continent     location date       total_cases new_cases
##    <chr>    <chr>         <chr>    <date>           <dbl>     <dbl>
##  1 ABW      North America Aruba    2020-03-13           2         2
##  2 ABW      North America Aruba    2020-03-19          NA         0
##  3 ABW      North America Aruba    2020-03-20           4         2
##  4 ABW      North America Aruba    2020-03-21          NA         0
##  5 ABW      North America Aruba    2020-03-22          NA         0
##  6 ABW      North America Aruba    2020-03-23          NA         0
##  7 ABW      North America Aruba    2020-03-24          12         8
##  8 ABW      North America Aruba    2020-03-25          17         5
##  9 ABW      North America Aruba    2020-03-26          19         2
## 10 ABW      North America Aruba    2020-03-27          28         9
## # ℹ 234 more rows
## # ℹ 47 more variables: new_cases_smoothed <dbl>, total_deaths <dbl>,
## #   new_deaths <dbl>, new_deaths_smoothed <dbl>, total_cases_per_million <dbl>,
## #   new_cases_per_million <dbl>, new_cases_smoothed_per_million <dbl>,
## #   total_deaths_per_million <dbl>, new_deaths_per_million <dbl>,
## #   new_deaths_smoothed_per_million <dbl>, reproduction_rate <dbl>,
## #   icu_patients <dbl>, icu_patients_per_million <dbl>, hosp_patients <dbl>, …
…
PR=owid %>% 
  filter(location=="Puerto Rico") %>% 
  dplyr::mutate(new_cases = replace_na(new_cases, 0)) %>% 
    dplyr::mutate(new_cases_03da = zoo::rollmean(new_cases, k = 3, fill = NA),
                  new_cases_07da = zoo::rollmean(new_cases, k = 7, fill = NA),
                  new_cases_14da = zoo::rollmean(new_cases, k = 14, fill = NA))
PR

## # A tibble: 234 × 53
##    iso_code continent     location    date       total_cases new_cases
##    <chr>    <chr>         <chr>       <date>           <dbl>     <dbl>
##  1 PRI      North America Puerto Rico 2020-03-28          64        64
##  2 PRI      North America Puerto Rico 2020-03-29         100        36
##  3 PRI      North America Puerto Rico 2020-03-30         127        27
##  4 PRI      North America Puerto Rico 2020-03-31         174        47
##  5 PRI      North America Puerto Rico 2020-04-01         239        65
##  6 PRI      North America Puerto Rico 2020-04-02         286        47
##  7 PRI      North America Puerto Rico 2020-04-03         316        30
##  8 PRI      North America Puerto Rico 2020-04-04         378        62
##  9 PRI      North America Puerto Rico 2020-04-05         452        74
## 10 PRI      North America Puerto Rico 2020-04-06         475        23
## # ℹ 224 more rows
## # ℹ 47 more variables: new_cases_smoothed <dbl>, total_deaths <dbl>,
## #   new_deaths <dbl>, new_deaths_smoothed <dbl>, total_cases_per_million <dbl>,
## #   new_cases_per_million <dbl>, new_cases_smoothed_per_million <dbl>,
## #   total_deaths_per_million <dbl>, new_deaths_per_million <dbl>,
## #   new_deaths_smoothed_per_million <dbl>, reproduction_rate <dbl>,
## #   icu_patients <dbl>, icu_patients_per_million <dbl>, hosp_patients <dbl>, …

library(slider)

PR2=owid %>%
  filter(location=="Puerto Rico") %>% 
  mutate(new_cases_14daSlider = slider::slide_dbl(new_cases, mean, .before = 14, .after = 0)) %>%
  mutate(new_cases_07daSlider = slider::slide_dbl(new_cases, mean, .before = 7, .after = 0)) %>%
  mutate(new_cases_03daSlider = slider::slide_dbl(new_cases, mean, .before = 3, .after = 0)) %>%
  ungroup()
PR2

## # A tibble: 234 × 53
##    iso_code continent     location    date       total_cases new_cases
##    <chr>    <chr>         <chr>       <date>           <dbl>     <dbl>
##  1 PRI      North America Puerto Rico 2020-03-28          64        64
##  2 PRI      North America Puerto Rico 2020-03-29         100        36
##  3 PRI      North America Puerto Rico 2020-03-30         127        27
##  4 PRI      North America Puerto Rico 2020-03-31         174        47
##  5 PRI      North America Puerto Rico 2020-04-01         239        65
##  6 PRI      North America Puerto Rico 2020-04-02         286        47
##  7 PRI      North America Puerto Rico 2020-04-03         316        30
##  8 PRI      North America Puerto Rico 2020-04-04         378        62
##  9 PRI      North America Puerto Rico 2020-04-05         452        74
## 10 PRI      North America Puerto Rico 2020-04-06         475        23
## # ℹ 224 more rows
## # ℹ 47 more variables: new_cases_smoothed <dbl>, total_deaths <dbl>,
## #   new_deaths <dbl>, new_deaths_smoothed <dbl>, total_cases_per_million <dbl>,
## #   new_cases_per_million <dbl>, new_cases_smoothed_per_million <dbl>,
## #   total_deaths_per_million <dbl>, new_deaths_per_million <dbl>,
## #   new_deaths_smoothed_per_million <dbl>, reproduction_rate <dbl>,
## #   icu_patients <dbl>, icu_patients_per_million <dbl>, hosp_patients <dbl>, …
…
