Tema_3_Graficos
…
Now to remove outliers

Festivalday1

## # A tibble: 809 x 5
##    ticknumb gender  day1  day2   day3
##       <dbl> <chr>  <dbl> <dbl>  <dbl>
##  1     2111 Male    2.64  1.35  1.61 
##  2     2229 Female  0.97  1.41  0.290
##  3     2338 Male    0.84 NA    NA    
##  4     2384 Female  3.03 NA    NA    
##  5     2401 Female  0.88  0.08 NA    
##  6     2405 Male    0.85 NA    NA    
##  7     2467 Female  1.56 NA    NA    
##  8     2478 Female  3.02 NA    NA    
##  9     2490 Male    2.29 NA    NA    
## 10     2504 Female  1.11  0.44  0.55 
## # … with 799 more rows
…
