gganimate
…
hacer un “facet_wrap” por continentes o otra variable

Puede cambiar el nombre de las leyenda en y y
x.

Puede modificar el tamaño del punto que representa el paises por una
variable.

library(readr)
library(readr)
owid_covid_data <- read_csv("COVID_DATA/owid-covid-data_2022.csv")
owid_covid_data

## # A tibble: 181,463 × 67
##    iso_code continent location    date       total_cases new_cases
##    <chr>    <chr>     <chr>       <date>           <dbl>     <dbl>
##  1 AFG      Asia      Afghanistan 2020-02-24           5         5
##  2 AFG      Asia      Afghanistan 2020-02-25           5         0
##  3 AFG      Asia      Afghanistan 2020-02-26           5         0
##  4 AFG      Asia      Afghanistan 2020-02-27           5         0
##  5 AFG      Asia      Afghanistan 2020-02-28           5         0
##  6 AFG      Asia      Afghanistan 2020-02-29           5         0
##  7 AFG      Asia      Afghanistan 2020-03-01           5         0
##  8 AFG      Asia      Afghanistan 2020-03-02           5         0
##  9 AFG      Asia      Afghanistan 2020-03-03           5         0
## 10 AFG      Asia      Afghanistan 2020-03-04           5         0
## # ℹ 181,453 more rows
## # ℹ 61 more variables: new_cases_smoothed <dbl>, total_deaths <dbl>,
## #   new_deaths <dbl>, new_deaths_smoothed <dbl>, total_cases_per_million <dbl>,
## #   new_cases_per_million <dbl>, new_cases_smoothed_per_million <dbl>,
## #   total_deaths_per_million <dbl>, new_deaths_per_million <dbl>,
## #   new_deaths_smoothed_per_million <dbl>, reproduction_rate <dbl>,
## #   icu_patients <dbl>, icu_patients_per_million <dbl>, hosp_patients <dbl>, …
…
##   Ozone Solar.R Wind Temp Month Day
## 1    41     190  7.4   67     5   1
## 2    36     118  8.0   72     5   2
## 3    12     149 12.6   74     5   3
## 4    18     313 11.5   62     5   4
## 5    NA      NA 14.3   56     5   5
## 6    28      NA 14.9   66     5   6

temp.promedio <- airquality %>%
  select(Day, Temp) %>% 
  group_by(Day) %>%
  summarise(Temp2 = mean(Temp, na.rm = TRUE))
temp.promedio

## # A tibble: 31 × 2
##      Day Temp2
##    <int> <dbl>
##  1     1  80.2
##  2     2  80.8
##  3     3  79.4
##  4     4  81.8
##  5     5  79.2
##  6     6  79.8
##  7     7  80.8
##  8     8  81.2
##  9     9  81.6
## 10    10  82  
## # ℹ 21 more rows
…
