G16_Tablas_Tablas_y_Tablas
…
El archivo esta un formato “data frame” y “A” esta en un formato
tibble. Nota que no se ve diferencias entre los dos a simple vista. Pero
es importante que sepa detras en el codigo del formato, hay codificación
que puede facilitar o no un analisis en cada uno de las opciones.

library(ggversa)
library(tibble)
Anolis

## # A tibble: 503 × 15
##    STUDY      Survey_Site     LOCATION TIME  DATE  SEASON SPECIES SEX_AGE HEIGHT
##    <chr>      <chr>           <chr>    <tim> <chr> <chr>  <chr>   <chr>    <dbl>
##  1 Mark/recap North Tower     El Verde 10:46 3/13… dry    Anolis… Female     0  
##  2 Mark/recap Woods walkway … El Verde 10:15 2/20… dry    Anolis… Juvenil    0  
##  3 Mark/recap Woods walkway … El Verde 11:15 2/21… dry    Anolis… Male       0  
##  4 Mark/recap North Tower     El Verde 11:06 3/16… dry    Anolis… Juvenil    0.3
##  5 Mark/recap North Tower     El Verde 12:31 3/11… dry    Anolis… Male       0.3
##  6 Mark/recap North Tower     El Verde 01:00 3/9/… dry    Anolis… Female     0.4
##  7 Mark/recap Woods walkway … El Verde 10:22 2/22… dry    Anolis… Female     0.4
##  8 Mark/recap North Tower     El Verde 11:55 3/12… dry    Anolis… Juvenil    0.4
##  9 Mark/recap Woods walkway … El Verde 10:15 2/20… dry    Anolis… Juvenil    0.4
## 10 Mark/recap North Tower     El Verde 12:31 3/11… dry    Anolis… Female     0.5
## # ℹ 493 more rows
## # ℹ 6 more variables: DISTANCE_FROM_CENTERLINE <dbl>, PERCH_SUBSTRATE <chr>,
## #   PERCH_DIAMETER <int>, WEIGHT <dbl>, SVL <dbl>, TAIL <dbl>

A=as_tibble(Anolis)
A

## # A tibble: 503 × 15
##    STUDY      Survey_Site     LOCATION TIME  DATE  SEASON SPECIES SEX_AGE HEIGHT
##    <chr>      <chr>           <chr>    <tim> <chr> <chr>  <chr>   <chr>    <dbl>
##  1 Mark/recap North Tower     El Verde 10:46 3/13… dry    Anolis… Female     0  
##  2 Mark/recap Woods walkway … El Verde 10:15 2/20… dry    Anolis… Juvenil    0  
##  3 Mark/recap Woods walkway … El Verde 11:15 2/21… dry    Anolis… Male       0  
##  4 Mark/recap North Tower     El Verde 11:06 3/16… dry    Anolis… Juvenil    0.3
##  5 Mark/recap North Tower     El Verde 12:31 3/11… dry    Anolis… Male       0.3
##  6 Mark/recap North Tower     El Verde 01:00 3/9/… dry    Anolis… Female     0.4
##  7 Mark/recap Woods walkway … El Verde 10:22 2/22… dry    Anolis… Female     0.4
##  8 Mark/recap North Tower     El Verde 11:55 3/12… dry    Anolis… Juvenil    0.4
##  9 Mark/recap Woods walkway … El Verde 10:15 2/20… dry    Anolis… Juvenil    0.4
## 10 Mark/recap North Tower     El Verde 12:31 3/11… dry    Anolis… Female     0.5
## # ℹ 493 more rows
## # ℹ 6 more variables: DISTANCE_FROM_CENTERLINE <dbl>, PERCH_SUBSTRATE <chr>,
## #   PERCH_DIAMETER <int>, WEIGHT <dbl>, SVL <dbl>, TAIL <dbl>
…
