G16_Tablas_Tablas_y_Tablas
…
El archivo esta un formato “data frame” y “A” esta en un formato
tibble. Nota que no se ve diferencias entre los dos a simple vista. Pero
es importante que sepa detras en el codigo del formato, hay codificación
que puede facilitar o no un analisis en cada uno de las opciones.

library(ggversa)
library(tibble)
Anolis

## # A tibble: 503 × 15
##    STUDY      Survey…¹ LOCAT…² TIME  DATE  SEASON SPECIES SEX_AGE HEIGHT DISTA…³
##    <chr>      <chr>    <chr>   <tim> <chr> <chr>  <chr>   <chr>    <dbl>   <dbl>
##  1 Mark/recap North T… El Ver… 10:46 3/13… dry    Anolis… Female     0       2.7
##  2 Mark/recap Woods w… El Ver… 10:15 2/20… dry    Anolis… Juvenil    0       2  
##  3 Mark/recap Woods w… El Ver… 11:15 2/21… dry    Anolis… Male       0       1.4
##  4 Mark/recap North T… El Ver… 11:06 3/16… dry    Anolis… Juvenil    0.3     1  
##  5 Mark/recap North T… El Ver… 12:31 3/11… dry    Anolis… Male       0.3     0.9
##  6 Mark/recap North T… El Ver… 01:00 3/9/… dry    Anolis… Female     0.4     0.9
##  7 Mark/recap Woods w… El Ver… 10:22 2/22… dry    Anolis… Female     0.4     0.6
##  8 Mark/recap North T… El Ver… 11:55 3/12… dry    Anolis… Juvenil    0.4     0.9
##  9 Mark/recap Woods w… El Ver… 10:15 2/20… dry    Anolis… Juvenil    0.4     0.4
## 10 Mark/recap North T… El Ver… 12:31 3/11… dry    Anolis… Female     0.5     0.9
## # … with 493 more rows, 5 more variables: PERCH_SUBSTRATE <chr>,
## #   PERCH_DIAMETER <int>, WEIGHT <dbl>, SVL <dbl>, TAIL <dbl>, and abbreviated
## #   variable names ¹​Survey_Site, ²​LOCATION, ³​DISTANCE_FROM_CENTERLINE

A=as_tibble(Anolis)
A

## # A tibble: 503 × 15
##    STUDY      Survey…¹ LOCAT…² TIME  DATE  SEASON SPECIES SEX_AGE HEIGHT DISTA…³
##    <chr>      <chr>    <chr>   <tim> <chr> <chr>  <chr>   <chr>    <dbl>   <dbl>
##  1 Mark/recap North T… El Ver… 10:46 3/13… dry    Anolis… Female     0       2.7
##  2 Mark/recap Woods w… El Ver… 10:15 2/20… dry    Anolis… Juvenil    0       2  
##  3 Mark/recap Woods w… El Ver… 11:15 2/21… dry    Anolis… Male       0       1.4
##  4 Mark/recap North T… El Ver… 11:06 3/16… dry    Anolis… Juvenil    0.3     1  
##  5 Mark/recap North T… El Ver… 12:31 3/11… dry    Anolis… Male       0.3     0.9
##  6 Mark/recap North T… El Ver… 01:00 3/9/… dry    Anolis… Female     0.4     0.9
##  7 Mark/recap Woods w… El Ver… 10:22 2/22… dry    Anolis… Female     0.4     0.6
##  8 Mark/recap North T… El Ver… 11:55 3/12… dry    Anolis… Juvenil    0.4     0.9
##  9 Mark/recap Woods w… El Ver… 10:15 2/20… dry    Anolis… Juvenil    0.4     0.4
## 10 Mark/recap North T… El Ver… 12:31 3/11… dry    Anolis… Female     0.5     0.9
## # … with 493 more rows, 5 more variables: PERCH_SUBSTRATE <chr>,
## #   PERCH_DIAMETER <int>, WEIGHT <dbl>, SVL <dbl>, TAIL <dbl>, and abbreviated
## #   variable names ¹​Survey_Site, ²​LOCATION, ³​DISTANCE_FROM_CENTERLINE
…
