Mapas
…
El paquete janitor se puede usar para limpiar los
nombres de las columnas

library(janitor)

crm <- crimen %>%
  clean_names() %>%
  rename(longitud = point_y, latitud = point_x)

crm

## # A tibble: 8,870 × 7
##    fecha  hora   delito delitos_code       latitud longitud area_policiaca
##    <chr>  <time>  <dbl> <chr>                <dbl>    <dbl> <chr>         
##  1 8/1/16 15:30       9 Otros                 18.4    -66.0 Carolina      
##  2 8/1/16 13:20       9 Otros                 18.2    -66.7 Utuado        
##  3 8/1/16 21:25       6 Apropiacion Ilegal    18.4    -66.0 San Juan      
##  4 8/1/16 02:35       9 Otros                 NA       NA   Aguadilla     
##  5 8/1/16 08:00       9 Otros                 NA       NA   Carolina      
##  6 8/1/16 18:18       6 Apropiacion Ilegal    18.4    -66.8 Arecibo       
##  7 8/1/16 22:30       5 Escalamiento          18.0    -66.6 Ponce         
##  8 8/1/16 13:30       6 Apropiacion Ilegal    18.3    -67.1 Mayaguez      
##  9 8/1/16 22:44       1 Asesinato             18.4    -66.0 San Juan      
## 10 8/1/16 17:19       5 Escalamiento          18.4    -66.0 Carolina      
## # ℹ 8,860 more rows
…
