Gráficos para conteos
…
Primero miramos los datos para entender que es los que la gráfica se
construye.

Calculamos la frecuencia de cada par de valores. ¿Cuantos lagartijas
hay en cada combinación de Peso y SVL?
Y posteriormente uno puede evaluar y gráficar la frecuencia de los
datos.

Anolis %>%  # pipe
  select(WEIGHT, SVL) %>%  # selecciona
  filter(WEIGHT<4) %>% 
  filter(SVL>20) %>%
  count(WEIGHT, SVL)

# A tibble: 62 × 3
   WEIGHT   SVL     n
    <dbl> <dbl> <int>
 1   0.3     23     1
 2   0.4     22     1
 3   0.45    26     1
 4   0.45    27     1
 5   0.5     27     1
 6   0.6     28     1
 7   0.6     30     1
 8   0.6     31     1
 9   0.7     28     3
10   0.7     32     2
# ℹ 52 more rows
…
