Grafico de puntos de Wilkinson
…
ATTENTION: This citation information has been auto-generated from the
package DESCRIPTION file and may need manual editing, see
'help("citation")'.

dipodium=clean_names(dipodium) # Esta función limpia los nombres de las variables 
dipodium

# A tibble: 1,363 × 21
   tree_…¹ tree_…²   dbh plant…³ ramet…⁴ dista…⁵ orien…⁶ numbe…⁷ heigh…⁸ herbi…⁹
     <int> <chr>   <dbl>   <int>   <int>   <dbl>   <dbl>   <int>   <int> <chr>  
 1       1 E.o      75         1       1    2.47      40      11      35 n      
 2       1 E.o      76         2       1    1.97      50      19      47 n      
 3       2 E.o      76         3       1    1.95     350      18      63 n      
 4       3 E.o      58         4       1    3.24     210      24      47 n      
 5       4 E.o      NA         5       1    0.85      80      25      61 n      
 6       5 E.o      59         6       1    2.62     160      17      35 n      
 7       5 E.o      59         7       1    2.82     170      19      51 n      
 8       6 E.o       8         8       1    3.12     245      14      43 n      
 9       7 E.o      11.5       9       1    1.12     208      16      42 n      
10       8 E.o       8.5      10       1    0.75     360      23      60 n      
# … with 1,353 more rows, 11 more variables: row_position_nf <int>,
#   number_flowers_position <int>, number_of_fruits <int>, perc_fr_set <dbl>,
#   pardalinum_or_roseum <chr>, fruit_position_effect <int>,
#   frutos_si_o_no <int>, p_or_r_infl_lenght <chr>, num_of_fruits <int>,
#   species_name <chr>, cardinal_orientation <int>, and abbreviated variable
#   names ¹​tree_number, ²​tree_species, ³​plant_number, ⁴​ramet_number, ⁵​distance,
#   ⁶​orientation, ⁷​number_of_flowers, ⁸​height_inflo, ⁹​herbivory
…
