Gráficos de barras con geom_bar
…
# gather the data in columns
# Paso 1
AA<-gather(Anchorage_ALASKA,
         key= "Mes",
         value="Temp_min_F", 
         -Year)
AA      

## # A tibble: 240 × 3
##     Year Mes   Temp_min_F
##    <dbl> <chr>      <dbl>
##  1  2000 Jan          -10
##  2  2001 Jan            8
##  3  2002 Jan          -11
##  4  2003 Jan            0
##  5  2004 Jan          -18
##  6  2005 Jan           -7
##  7  2006 Jan          -11
##  8  2007 Jan          -17
##  9  2008 Jan          -10
## 10  2009 Jan          -24
## # … with 230 more rows
…
