Gráficos de caja y de violín
…
Las muescas (notch)

Las muescas a los lados de un diagrama de caja se pueden interpretar
como un intervalo de comparación alrededor de los valores de la mediana.
La altura de la muesca es la mediana \(+/-
1,57 x IQR/sqrt(n)\) donde IQR es el rango intercuartílico
definido por los percentiles 25 y 75 y n es el número
de puntos de datos

Teoretical boxplot

df=as.tibble(c(1,8:10, 100:120, 125:135,150:160, 800, 1000))
df

## # A tibble: 49 × 1
##    value
##    <dbl>
##  1     1
##  2     8
##  3     9
##  4    10
##  5   100
##  6   101
##  7   102
##  8   103
##  9   104
## 10   105
## # ℹ 39 more rows
…
