gganimate
…
##   Ozone Solar.R Wind Temp Month Day
## 1    41     190  7.4   67     5   1
## 2    36     118  8.0   72     5   2
## 3    12     149 12.6   74     5   3
## 4    18     313 11.5   62     5   4
## 5    NA      NA 14.3   56     5   5
## 6    28      NA 14.9   66     5   6

temp.promedio <- airquality %>%
  select(Day, Temp) %>% 
  group_by(Day) %>%
  summarise(Temp2 = mean(Temp, na.rm = TRUE))
temp.promedio

## # A tibble: 31 × 2
##      Day Temp2
##    <int> <dbl>
##  1     1  80.2
##  2     2  80.8
##  3     3  79.4
##  4     4  81.8
##  5     5  79.2
##  6     6  79.8
##  7     7  80.8
##  8     8  81.2
##  9     9  81.6
## 10    10  82  
## # … with 21 more rows
…
