Anolis
…
count: false

.panel1-the_chunk-auto[

```r
*Anolis   # pipe
```
]
 
.panel2-the_chunk-auto[

```
# A tibble: 503 × 15
   STUDY      Survey_Site     LOCATION TIME  DATE  SEASON SPECIES SEX_AGE HEIGHT
   <chr>      <chr>           <chr>    <tim> <chr> <chr>  <chr>   <chr>    <dbl>
 1 Mark/recap North Tower     El Verde 10:46 3/13… dry    Anolis… Female     0  
 2 Mark/recap Woods walkway … El Verde 10:15 2/20… dry    Anolis… Juvenil    0  
 3 Mark/recap Woods walkway … El Verde 11:15 2/21… dry    Anolis… Male       0  
 4 Mark/recap North Tower     El Verde 11:06 3/16… dry    Anolis… Juvenil    0.3
 5 Mark/recap North Tower     El Verde 12:31 3/11… dry    Anolis… Male       0.3
 6 Mark/recap North Tower     El Verde 01:00 3/9/… dry    Anolis… Female     0.4
 7 Mark/recap Woods walkway … El Verde 10:22 2/22… dry    Anolis… Female     0.4
 8 Mark/recap North Tower     El Verde 11:55 3/12… dry    Anolis… Juvenil    0.4
 9 Mark/recap Woods walkway … El Verde 10:15 2/20… dry    Anolis… Juvenil    0.4
10 Mark/recap North Tower     El Verde 12:31 3/11… dry    Anolis… Female     0.5
# … with 493 more rows, and 6 more variables: DISTANCE_FROM_CENTERLINE <dbl>,
#   PERCH_SUBSTRATE <chr>, PERCH_DIAMETER <int>, WEIGHT <dbl>, SVL <dbl>,
#   TAIL <dbl>
```
…
---
count: false

.panel1-the_chunk-auto[

```r
Anolis %>%  # pipe
* select(WEIGHT, SVL)   # Seleccionar solamente la siguientes columnas
```
]
 
.panel2-the_chunk-auto[

```
# A tibble: 503 × 2
   WEIGHT   SVL
    <dbl> <dbl>
 1   NA      NA
 2   NA      29
 3   NA      NA
 4    7      26
 5    2.4    45
 6    1.6    37
 7   NA      NA
 8    1.4    36
 9   NA      33
10    2      43
# … with 493 more rows
```
…
.panel1-the_chunk-auto[

```r
Anolis %>%  # pipe
  select(WEIGHT, SVL) %>%  # Seleccionar solamente la siguientes columnas
*filter(WEIGHT<4 & SVL>20)
```
]
 
.panel2-the_chunk-auto[

```
# A tibble: 72 × 2
   WEIGHT   SVL
    <dbl> <dbl>
 1   2.4     45
 2   1.6     37
 3   1.4     36
 4   2       43
 5   1.8     38
 6   1.1     35
 7   0.7     28
 8   0.75    29
 9   1.3     36
10   2.4     45
# … with 62 more rows
```
…
