G12_Mapas_Calor
…
Primero, necesitamos calcular los coeficientes de correlación con la
opción cor. Luego visualizaremos los datos con la
función kable.

dipodium

## # A tibble: 1,365 × 21
##    tree_number tree_species   dbh plant_number ramet_number distance orientation
##          <int> <chr>        <dbl>        <int>        <int>    <dbl>       <dbl>
##  1           1 E.o           75              1            1     2.47          40
##  2           1 E.o           76              2            1     1.97          50
##  3           2 E.o           76              3            1     1.95         350
##  4           3 E.o           58              4            1     3.24         210
##  5           4 E.o           NA              5            1     0.85          80
##  6           5 E.o           59              6            1     2.62         160
##  7           5 E.o           59              7            1     2.82         170
##  8           6 E.o            8              8            1     3.12         245
##  9           7 E.o           11.5            9            1     1.12         208
## 10           8 E.o            8.5           10            1     0.75         360
## # ℹ 1,355 more rows
## # ℹ 14 more variables: number_of_flowers <dbl>, height_inflo <dbl>,
## #   herbivory <chr>, row_position_nf <int>, number_flowers_position <int>,
## #   number_of_fruits <int>, perc_fr_set <dbl>, pardalinum_or_roseum <chr>,
## #   fruit_position_effect <int>, frutos_si_o_no <int>,
## #   p_or_r_infl_lenght <chr>, num_of_fruits <int>, species_name <chr>,
## #   cardinal_orientation <int>
…
